[
{"Plante":["Eau", "Sol", "Roche"]},
{"Vol":["Plante", "Combat", "Insecte"]},
{"Spectre":["Psy", "Spectre"]},
{"Feu":["Plante", "Glace", "Insecte", "Acier"]},
{"Tenebres":["Psy", "Spectre"]},
{"Eau":["Feu", "Sol", "Roche"]},
{"Fee":["Combat", "Dragon", "Tenebres"]},
{"Normal":[]},
{"Insecte":["Plante", "Psy", "Tenebres"]},
{"Electrik":["Eau", "Vol"]},
{"Combat":["Normal", "Glace", "Tenebres", "Acier"]},
{"Glace":["Plante", "Sol", "Vol", "Dragon"]},
{"Roche":["Feu", "Glace", "Vol", "Insecte"]},
{"Poison":["Plante", "Fee"]},
{"Sol":["Feu", "Electrik", "Poison", "Roche", "Acier"]},
{"Psy":["Combat", "Poison"]},
{"Dragon":["Dragon"]},
{"Acier":["Glace", "Roche", "Fee"]}
]